<?xml version="1.0" encoding="UTF-8" standalone="no"?>
<!DOCTYPE svg PUBLIC "-//W3C//DTD SVG 1.0//EN" "http://www.w3.org/TR/2001/PR-SVG-20010719/DTD/svg10.dtd">
<svg width="53cm" height="14cm" viewBox="99 118 1043 263" xmlns="http://www.w3.org/2000/svg" xmlns:xlink="http://www.w3.org/1999/xlink">
  <g>
    <rect style="fill: #add8e6" x="540" y="120" width="380" height="100"/>
    <rect style="fill: none; fill-opacity:0; stroke-width: 2; stroke: #000000" x="540" y="120" width="380" height="100"/>
  </g>
  <g>
    <rect style="fill: #f9cc6d" x="540" y="280" width="160" height="100"/>
    <rect style="fill: none; fill-opacity:0; stroke-width: 2; stroke: #000000" x="540" y="280" width="160" height="100"/>
  </g>
  <g>
    <rect style="fill: #bfbfbf" x="760" y="280" width="160" height="100"/>
    <rect style="fill: none; fill-opacity:0; stroke-width: 2; stroke: #000000" x="760" y="280" width="160" height="100"/>
  </g>
  <g>
    <rect style="fill: #bfbfbf" x="980" y="280" width="160" height="100"/>
    <rect style="fill: none; fill-opacity:0; stroke-width: 2; stroke: #000000" x="980" y="280" width="160" height="100"/>
  </g>
  <g>
    <line style="fill: none; fill-opacity:0; stroke-width: 2; stroke: #000000" x1="620" y1="224.472" x2="620" y2="275.528"/>
    <polyline style="fill: none; fill-opacity:0; stroke-width: 2; stroke: #000000" points="625,232.236 620,222.236 615,232.236 "/>
    <polyline style="fill: none; fill-opacity:0; stroke-width: 2; stroke: #000000" points="615,267.764 620,277.764 625,267.764 "/>
  </g>
  <g>
    <line style="fill: none; fill-opacity:0; stroke-width: 2; stroke: #bfbfbf" x1="840" y1="224.472" x2="840" y2="275.528"/>
    <polyline style="fill: none; fill-opacity:0; stroke-width: 2; stroke: #bfbfbf" points="845,232.236 840,222.236 835,232.236 "/>
    <polyline style="fill: none; fill-opacity:0; stroke-width: 2; stroke: #bfbfbf" points="835,267.764 840,277.764 845,267.764 "/>
  </g>
  <g>
    <line style="fill: none; fill-opacity:0; stroke-width: 2; stroke: #bfbfbf" x1="700" y1="330" x2="755.528" y2="330"/>
    <polyline style="fill: none; fill-opacity:0; stroke-width: 2; stroke: #bfbfbf" points="747.764,335 757.764,330 747.764,325 "/>
  </g>
  <g>
    <line style="fill: none; fill-opacity:0; stroke-width: 2; stroke: #bfbfbf" x1="920" y1="330" x2="975.528" y2="330"/>
    <polyline style="fill: none; fill-opacity:0; stroke-width: 2; stroke: #bfbfbf" points="967.764,335 977.764,330 967.764,325 "/>
  </g>
  <text font-size="12.8" style="fill: #000000;text-anchor:middle;font-family:sans-serif;font-style:normal;font-weight:normal" x="1060" y="334.45">
    <tspan x="1060" y="334.45">Screen</tspan>
  </text>
  <text font-size="12.8" style="fill: #000000;text-anchor:middle;font-family:sans-serif;font-style:normal;font-weight:normal" x="840" y="334.45">
    <tspan x="840" y="334.45">Display controller</tspan>
  </text>
  <text font-size="12.8" style="fill: #000000;text-anchor:middle;font-family:sans-serif;font-style:normal;font-weight:normal" x="620" y="334.45">
    <tspan x="620" y="334.45">GPU</tspan>
  </text>
  <text font-size="12.8" style="fill: #000000;text-anchor:middle;font-family:sans-serif;font-style:normal;font-weight:normal" x="730" y="174.45">
    <tspan x="730" y="174.45">Graphics memory</tspan>
  </text>
  <text font-size="33.8667" style="fill: #000000;text-anchor:middle;font-family:sans-serif;font-style:normal;font-weight:normal" x="280" y="261.7">
    <tspan x="280" y="261.7">1</tspan>
  </text>
  <g>
    <path style="fill: none; fill-opacity:0; stroke-width: 2; stroke: #000000" d="M 540 140 C 500,120 200,140 174.354,191.292"/>
    <polygon style="fill: #000000" points="171,198 171,186.82 174.354,191.292 179.944,191.292 "/>
    <polygon style="fill: none; fill-opacity:0; stroke-width: 2; stroke: #000000" points="171,198 171,186.82 174.354,191.292 179.944,191.292 "/>
  </g>
  <g>
    <path style="fill: none; fill-opacity:0; stroke-width: 2; stroke: #000000" d="M 540 160 C 466.96,160 280,160 280,210.264"/>
    <polygon style="fill: #000000" points="280,217.764 275,207.764 280,210.264 285,207.764 "/>
    <polygon style="fill: none; fill-opacity:0; stroke-width: 2; stroke: #000000" points="280,217.764 275,207.764 280,210.264 285,207.764 "/>
  </g>
  <g>
    <path style="fill: none; fill-opacity:0; stroke-width: 2; stroke: #000000" d="M 170 300 C 180,400 460.32,360 530.264,360"/>
    <polygon style="fill: #000000" points="537.764,360 527.764,365 530.264,360 527.764,355 "/>
    <polygon style="fill: none; fill-opacity:0; stroke-width: 2; stroke: #000000" points="537.764,360 527.764,365 530.264,360 527.764,355 "/>
  </g>
  <g>
    <path style="fill: none; fill-opacity:0; stroke-width: 2; stroke: #000000" d="M 280 280 C 280,320 433.76,340 530.264,340"/>
    <polygon style="fill: #000000" points="537.764,340 527.764,345 530.264,340 527.764,335 "/>
    <polygon style="fill: none; fill-opacity:0; stroke-width: 2; stroke: #000000" points="537.764,340 527.764,345 530.264,340 527.764,335 "/>
  </g>
  <g>
    <g>
      <rect style="fill: #ffff84" x="100" y="200" width="140" height="100"/>
      <rect style="fill: none; fill-opacity:0; stroke-width: 2; stroke: #000000" x="100" y="200" width="140" height="100"/>
    </g>
    <line style="fill: none; fill-opacity:0; stroke-width: 2; stroke: #000000" x1="100" y1="220" x2="240" y2="220"/>
    <line style="fill: none; fill-opacity:0; stroke-width: 2; stroke: #000000" x1="220" y1="220" x2="220" y2="200"/>
    <line style="fill: none; fill-opacity:0; stroke-width: 2; stroke: #000000" x1="200" y1="220" x2="200" y2="200"/>
    <line style="fill: none; fill-opacity:0; stroke-width: 2; stroke: #000000" x1="180" y1="220" x2="180" y2="200"/>
  </g>
  <g>
    <g>
      <rect style="fill: #ffff84" x="360" y="200" width="140" height="100"/>
      <rect style="fill: none; fill-opacity:0; stroke-width: 2; stroke: #000000" x="360" y="200" width="140" height="100"/>
    </g>
    <line style="fill: none; fill-opacity:0; stroke-width: 2; stroke: #000000" x1="360" y1="220" x2="500" y2="220"/>
    <line style="fill: none; fill-opacity:0; stroke-width: 2; stroke: #000000" x1="480" y1="220" x2="480" y2="200"/>
    <line style="fill: none; fill-opacity:0; stroke-width: 2; stroke: #000000" x1="460" y1="220" x2="460" y2="200"/>
    <line style="fill: none; fill-opacity:0; stroke-width: 2; stroke: #000000" x1="440" y1="220" x2="440" y2="200"/>
  </g>
  <text font-size="33.8667" style="fill: #000000;text-anchor:middle;font-family:sans-serif;font-style:normal;font-weight:normal" x="430" y="261.7">
    <tspan x="430" y="261.7">1</tspan>
  </text>
  <g>
    <path style="fill: none; fill-opacity:0; stroke-width: 2; stroke: #000000" d="M 540 320 C 503.48,320 440,320 434.354,308.708"/>
    <polygon style="fill: #000000" points="431,302 439.944,308.708 434.354,308.708 431,313.18 "/>
    <polygon style="fill: none; fill-opacity:0; stroke-width: 2; stroke: #000000" points="431,302 439.944,308.708 434.354,308.708 431,313.18 "/>
  </g>
  <g>
    <path style="fill: none; fill-opacity:0; stroke-width: 2; stroke: #000000" d="M 430 200 C 440,160 503.48,180 530.264,180"/>
    <polygon style="fill: #000000" points="537.764,180 527.764,185 530.264,180 527.764,175 "/>
    <polygon style="fill: none; fill-opacity:0; stroke-width: 2; stroke: #000000" points="537.764,180 527.764,185 530.264,180 527.764,175 "/>
  </g>
</svg>
